<mxfile host="draw.p.uintra.net" modified="2023-06-12T13:24:18.841Z" agent="Mozilla/5.0 (X11; Linux x86_64; rv:109.0) Gecko/20100101 Firefox/114.0" etag="YXmHy6T1duaHmc9w4lPQ" version="21.3.0" type="device">
  <diagram id="AmIHxZZK41vtScD92SHP" name="Page-1">
    <mxGraphModel dx="1195" dy="658" grid="1" gridSize="10" guides="1" tooltips="1" connect="1" arrows="1" fold="1" page="1" pageScale="1" pageWidth="827" pageHeight="1169" math="0" shadow="0">
      <root>
        <mxCell id="0" />
        <mxCell id="1" parent="0" />
        <mxCell id="F3c4YPrWCq_vQF_exHxQ-69" value="" style="verticalLabelPosition=bottom;verticalAlign=top;html=1;shape=mxgraph.basic.rect;fillColor2=none;strokeWidth=1;size=20;indent=5;fontSize=10;fontColor=#000000;fillColor=#FFFFFA;shadow=1;" parent="1" vertex="1">
          <mxGeometry x="10" y="10" width="720" height="460" as="geometry" />
        </mxCell>
        <mxCell id="F3c4YPrWCq_vQF_exHxQ-52" value="" style="verticalLabelPosition=bottom;verticalAlign=top;html=1;shape=mxgraph.basic.rect;fillColor2=none;strokeWidth=2;size=20;indent=5;fontSize=10;dashed=1;fillColor=none;strokeColor=#6c8ebf;rectStyle=rounded;" parent="1" vertex="1">
          <mxGeometry x="230" y="30" width="430" height="240" as="geometry" />
        </mxCell>
        <mxCell id="F3c4YPrWCq_vQF_exHxQ-2" value="" style="verticalAlign=top;verticalLabelPosition=bottom;labelPosition=center;align=center;html=1;outlineConnect=0;fillColor=#dae8fc;strokeColor=#6c8ebf;gradientDirection=north;strokeWidth=2;shape=mxgraph.networks.wireless_hub;" parent="1" vertex="1">
          <mxGeometry x="359" y="90" width="150" height="110" as="geometry" />
        </mxCell>
        <mxCell id="F3c4YPrWCq_vQF_exHxQ-9" value="&lt;div&gt;br-kube&lt;/div&gt;&lt;div&gt;192.168.229.1&lt;/div&gt;" style="rounded=1;whiteSpace=wrap;html=1;fillColor=#f8cecc;strokeColor=#b85450;" parent="1" vertex="1">
          <mxGeometry x="365" y="210" width="90" height="40" as="geometry" />
        </mxCell>
        <mxCell id="F3c4YPrWCq_vQF_exHxQ-18" value="" style="group" parent="1" vertex="1" connectable="0">
          <mxGeometry x="250" y="310" width="80" height="120" as="geometry" />
        </mxCell>
        <mxCell id="F3c4YPrWCq_vQF_exHxQ-13" value="" style="group" parent="F3c4YPrWCq_vQF_exHxQ-18" vertex="1" connectable="0">
          <mxGeometry width="80" height="90" as="geometry" />
        </mxCell>
        <mxCell id="F3c4YPrWCq_vQF_exHxQ-1" value="" style="verticalAlign=top;verticalLabelPosition=bottom;labelPosition=center;align=center;html=1;outlineConnect=0;fillColor=#f8cecc;strokeColor=#b85450;gradientDirection=north;strokeWidth=2;shape=mxgraph.networks.supercomputer;" parent="F3c4YPrWCq_vQF_exHxQ-13" vertex="1">
          <mxGeometry x="10" y="30" width="60" height="60" as="geometry" />
        </mxCell>
        <mxCell id="F3c4YPrWCq_vQF_exHxQ-12" value="192.168.229.2" style="rounded=1;whiteSpace=wrap;html=1;fillColor=#f8cecc;strokeColor=#b85450;" parent="F3c4YPrWCq_vQF_exHxQ-13" vertex="1">
          <mxGeometry width="80" height="20" as="geometry" />
        </mxCell>
        <mxCell id="F3c4YPrWCq_vQF_exHxQ-66" value="" style="sketch=0;html=1;dashed=0;whitespace=wrap;fillColor=#f8cecc;strokeColor=#b85450;points=[[0.005,0.63,0],[0.1,0.2,0],[0.9,0.2,0],[0.5,0,0],[0.995,0.63,0],[0.72,0.99,0],[0.5,1,0],[0.28,0.99,0]];verticalLabelPosition=bottom;align=center;verticalAlign=top;shape=mxgraph.kubernetes.icon;prIcon=node;strokeWidth=2;fontSize=10;" parent="F3c4YPrWCq_vQF_exHxQ-13" vertex="1">
          <mxGeometry y="40" width="20" height="18" as="geometry" />
        </mxCell>
        <mxCell id="F3c4YPrWCq_vQF_exHxQ-17" value="&lt;div&gt;pi-kube1&lt;/div&gt;" style="text;html=1;strokeColor=none;fillColor=none;align=center;verticalAlign=middle;whiteSpace=wrap;rounded=0;" parent="F3c4YPrWCq_vQF_exHxQ-18" vertex="1">
          <mxGeometry x="10" y="100" width="60" height="20" as="geometry" />
        </mxCell>
        <mxCell id="F3c4YPrWCq_vQF_exHxQ-19" value="" style="group" parent="1" vertex="1" connectable="0">
          <mxGeometry x="370" y="310" width="80" height="120" as="geometry" />
        </mxCell>
        <mxCell id="F3c4YPrWCq_vQF_exHxQ-20" value="" style="group" parent="F3c4YPrWCq_vQF_exHxQ-19" vertex="1" connectable="0">
          <mxGeometry width="80" height="90" as="geometry" />
        </mxCell>
        <mxCell id="F3c4YPrWCq_vQF_exHxQ-21" value="" style="verticalAlign=top;verticalLabelPosition=bottom;labelPosition=center;align=center;html=1;outlineConnect=0;fillColor=#f8cecc;strokeColor=#b85450;gradientDirection=north;strokeWidth=2;shape=mxgraph.networks.supercomputer;" parent="F3c4YPrWCq_vQF_exHxQ-20" vertex="1">
          <mxGeometry x="10" y="30" width="60" height="60" as="geometry" />
        </mxCell>
        <mxCell id="F3c4YPrWCq_vQF_exHxQ-22" value="192.168.229.3" style="rounded=1;whiteSpace=wrap;html=1;fillColor=#f8cecc;strokeColor=#b85450;" parent="F3c4YPrWCq_vQF_exHxQ-20" vertex="1">
          <mxGeometry width="80" height="20" as="geometry" />
        </mxCell>
        <mxCell id="F3c4YPrWCq_vQF_exHxQ-68" value="" style="sketch=0;html=1;dashed=0;whitespace=wrap;fillColor=#f8cecc;strokeColor=#b85450;points=[[0.005,0.63,0],[0.1,0.2,0],[0.9,0.2,0],[0.5,0,0],[0.995,0.63,0],[0.72,0.99,0],[0.5,1,0],[0.28,0.99,0]];verticalLabelPosition=bottom;align=center;verticalAlign=top;shape=mxgraph.kubernetes.icon;prIcon=node;strokeWidth=2;fontSize=10;" parent="F3c4YPrWCq_vQF_exHxQ-20" vertex="1">
          <mxGeometry y="40" width="20" height="19" as="geometry" />
        </mxCell>
        <mxCell id="F3c4YPrWCq_vQF_exHxQ-23" value="&lt;div&gt;pi-kube2&lt;/div&gt;" style="text;html=1;strokeColor=none;fillColor=none;align=center;verticalAlign=middle;whiteSpace=wrap;rounded=0;" parent="F3c4YPrWCq_vQF_exHxQ-19" vertex="1">
          <mxGeometry x="10" y="100" width="60" height="20" as="geometry" />
        </mxCell>
        <mxCell id="F3c4YPrWCq_vQF_exHxQ-26" value="" style="group" parent="1" vertex="1" connectable="0">
          <mxGeometry x="490" y="310" width="80" height="120" as="geometry" />
        </mxCell>
        <mxCell id="F3c4YPrWCq_vQF_exHxQ-27" value="" style="group" parent="F3c4YPrWCq_vQF_exHxQ-26" vertex="1" connectable="0">
          <mxGeometry width="80" height="90" as="geometry" />
        </mxCell>
        <mxCell id="F3c4YPrWCq_vQF_exHxQ-28" value="" style="verticalAlign=top;verticalLabelPosition=bottom;labelPosition=center;align=center;html=1;outlineConnect=0;fillColor=#f8cecc;strokeColor=#b85450;gradientDirection=north;strokeWidth=2;shape=mxgraph.networks.supercomputer;" parent="F3c4YPrWCq_vQF_exHxQ-27" vertex="1">
          <mxGeometry x="10" y="30" width="60" height="60" as="geometry" />
        </mxCell>
        <mxCell id="F3c4YPrWCq_vQF_exHxQ-29" value="192.168.229.4" style="rounded=1;whiteSpace=wrap;html=1;fillColor=#f8cecc;strokeColor=#b85450;" parent="F3c4YPrWCq_vQF_exHxQ-27" vertex="1">
          <mxGeometry width="80" height="20" as="geometry" />
        </mxCell>
        <mxCell id="F3c4YPrWCq_vQF_exHxQ-67" value="" style="sketch=0;html=1;dashed=0;whitespace=wrap;fillColor=#f8cecc;strokeColor=#b85450;points=[[0.005,0.63,0],[0.1,0.2,0],[0.9,0.2,0],[0.5,0,0],[0.995,0.63,0],[0.72,0.99,0],[0.5,1,0],[0.28,0.99,0]];verticalLabelPosition=bottom;align=center;verticalAlign=top;shape=mxgraph.kubernetes.icon;prIcon=node;strokeWidth=2;fontSize=10;" parent="F3c4YPrWCq_vQF_exHxQ-27" vertex="1">
          <mxGeometry y="40" width="20" height="18" as="geometry" />
        </mxCell>
        <mxCell id="F3c4YPrWCq_vQF_exHxQ-30" value="&lt;div&gt;pi-kube3&lt;/div&gt;" style="text;html=1;strokeColor=none;fillColor=none;align=center;verticalAlign=middle;whiteSpace=wrap;rounded=0;" parent="F3c4YPrWCq_vQF_exHxQ-26" vertex="1">
          <mxGeometry x="10" y="100" width="60" height="20" as="geometry" />
        </mxCell>
        <mxCell id="F3c4YPrWCq_vQF_exHxQ-35" style="edgeStyle=orthogonalEdgeStyle;rounded=0;orthogonalLoop=1;jettySize=auto;html=1;curved=1;startArrow=none;startFill=0;endArrow=none;endFill=0;entryX=0.25;entryY=1;entryDx=0;entryDy=0;" parent="1" source="F3c4YPrWCq_vQF_exHxQ-12" target="F3c4YPrWCq_vQF_exHxQ-9" edge="1">
          <mxGeometry relative="1" as="geometry">
            <Array as="points">
              <mxPoint x="290" y="290" />
              <mxPoint x="388" y="290" />
            </Array>
          </mxGeometry>
        </mxCell>
        <mxCell id="F3c4YPrWCq_vQF_exHxQ-36" style="edgeStyle=orthogonalEdgeStyle;rounded=0;orthogonalLoop=1;jettySize=auto;html=1;endArrow=none;endFill=0;startArrow=none;startFill=0;curved=1;entryX=0.5;entryY=1;entryDx=0;entryDy=0;" parent="1" source="F3c4YPrWCq_vQF_exHxQ-22" target="F3c4YPrWCq_vQF_exHxQ-9" edge="1">
          <mxGeometry relative="1" as="geometry">
            <mxPoint x="410" y="360" as="targetPoint" />
          </mxGeometry>
        </mxCell>
        <mxCell id="F3c4YPrWCq_vQF_exHxQ-37" style="edgeStyle=orthogonalEdgeStyle;rounded=0;orthogonalLoop=1;jettySize=auto;html=1;startArrow=none;startFill=0;endArrow=none;endFill=0;curved=1;" parent="1" source="F3c4YPrWCq_vQF_exHxQ-29" target="F3c4YPrWCq_vQF_exHxQ-9" edge="1">
          <mxGeometry relative="1" as="geometry">
            <Array as="points">
              <mxPoint x="530" y="290" />
              <mxPoint x="430" y="290" />
            </Array>
          </mxGeometry>
        </mxCell>
        <mxCell id="F3c4YPrWCq_vQF_exHxQ-51" style="edgeStyle=orthogonalEdgeStyle;curved=1;rounded=0;orthogonalLoop=1;jettySize=auto;html=1;entryX=0;entryY=0.5;entryDx=0;entryDy=0;fontSize=10;fontColor=#660033;startArrow=none;startFill=0;endArrow=none;endFill=0;" parent="1" source="F3c4YPrWCq_vQF_exHxQ-39" target="F3c4YPrWCq_vQF_exHxQ-40" edge="1">
          <mxGeometry relative="1" as="geometry">
            <Array as="points">
              <mxPoint x="70" y="100" />
            </Array>
          </mxGeometry>
        </mxCell>
        <mxCell id="F3c4YPrWCq_vQF_exHxQ-39" value="" style="fontColor=#0066CC;verticalAlign=top;verticalLabelPosition=bottom;labelPosition=center;align=center;html=1;outlineConnect=0;fillColor=#CCCCCC;strokeColor=#6881B3;gradientColor=none;gradientDirection=north;strokeWidth=2;shape=mxgraph.networks.pc;" parent="1" vertex="1">
          <mxGeometry x="50" y="270" width="120" height="100" as="geometry" />
        </mxCell>
        <mxCell id="F3c4YPrWCq_vQF_exHxQ-50" value="" style="group" parent="1" vertex="1" connectable="0">
          <mxGeometry x="250" y="60" width="120" height="80" as="geometry" />
        </mxCell>
        <mxCell id="F3c4YPrWCq_vQF_exHxQ-40" value="" style="rounded=1;whiteSpace=wrap;html=1;fillColor=#fff2cc;strokeColor=#d6b656;" parent="F3c4YPrWCq_vQF_exHxQ-50" vertex="1">
          <mxGeometry width="120" height="80" as="geometry" />
        </mxCell>
        <mxCell id="F3c4YPrWCq_vQF_exHxQ-42" value="" style="endArrow=none;dashed=1;html=1;dashPattern=1 3;strokeWidth=2;rounded=0;fontColor=#660033;curved=1;entryX=0;entryY=0.5;entryDx=0;entryDy=0;exitX=1;exitY=0.5;exitDx=0;exitDy=0;fillColor=#fff2cc;strokeColor=#d6b656;" parent="F3c4YPrWCq_vQF_exHxQ-50" source="F3c4YPrWCq_vQF_exHxQ-40" target="F3c4YPrWCq_vQF_exHxQ-40" edge="1">
          <mxGeometry width="50" height="50" relative="1" as="geometry">
            <mxPoint x="160" y="457.1428571428571" as="sourcePoint" />
            <mxPoint x="210" y="400" as="targetPoint" />
          </mxGeometry>
        </mxCell>
        <mxCell id="F3c4YPrWCq_vQF_exHxQ-48" value="&lt;div&gt;br-lan&lt;/div&gt;&lt;div&gt;192.168.1.1&lt;/div&gt;" style="text;html=1;align=center;verticalAlign=middle;whiteSpace=wrap;rounded=0;" parent="F3c4YPrWCq_vQF_exHxQ-50" vertex="1">
          <mxGeometry width="120" height="40" as="geometry" />
        </mxCell>
        <mxCell id="F3c4YPrWCq_vQF_exHxQ-47" value="&lt;font color=&quot;#660033&quot;&gt;192.168.1.72&lt;/font&gt;" style="text;html=1;strokeColor=none;fillColor=none;align=center;verticalAlign=middle;whiteSpace=wrap;rounded=0;fontColor=#660033;" parent="F3c4YPrWCq_vQF_exHxQ-50" vertex="1">
          <mxGeometry y="50" width="120" height="20" as="geometry" />
        </mxCell>
        <mxCell id="F3c4YPrWCq_vQF_exHxQ-54" style="edgeStyle=orthogonalEdgeStyle;rounded=0;orthogonalLoop=1;jettySize=auto;html=1;fontSize=10;fontColor=#660033;startArrow=classic;startFill=1;endArrow=oval;endFill=1;fillColor=#e1d5e7;strokeColor=#A680B8;entryX=1;entryY=0.5;entryDx=0;entryDy=0;" parent="1" source="F3c4YPrWCq_vQF_exHxQ-53" target="F3c4YPrWCq_vQF_exHxQ-47" edge="1">
          <mxGeometry relative="1" as="geometry">
            <Array as="points">
              <mxPoint x="590" y="70" />
              <mxPoint x="400" y="70" />
              <mxPoint x="400" y="120" />
            </Array>
          </mxGeometry>
        </mxCell>
        <mxCell id="F3c4YPrWCq_vQF_exHxQ-61" style="edgeStyle=orthogonalEdgeStyle;rounded=0;orthogonalLoop=1;jettySize=auto;html=1;strokeColor=#A680B8;fontSize=10;fontColor=#660033;startArrow=none;startFill=0;endArrow=classic;endFill=1;exitX=0.5;exitY=1;exitDx=0;exitDy=0;" parent="1" source="F3c4YPrWCq_vQF_exHxQ-53" edge="1">
          <mxGeometry relative="1" as="geometry">
            <mxPoint x="250" y="320" as="targetPoint" />
            <Array as="points">
              <mxPoint x="590" y="450" />
              <mxPoint x="230" y="450" />
              <mxPoint x="230" y="320" />
            </Array>
          </mxGeometry>
        </mxCell>
        <mxCell id="F3c4YPrWCq_vQF_exHxQ-53" value="" style="shape=sumEllipse;perimeter=ellipsePerimeter;whiteSpace=wrap;html=1;backgroundOutline=1;dashed=1;fontSize=10;fillColor=#e1d5e7;strokeColor=#9673a6;" parent="1" vertex="1">
          <mxGeometry x="560" y="90" width="60" height="60" as="geometry" />
        </mxCell>
        <mxCell id="F3c4YPrWCq_vQF_exHxQ-55" value="&lt;div&gt;Keepalived&lt;/div&gt;" style="text;html=1;strokeColor=none;fillColor=none;align=center;verticalAlign=middle;whiteSpace=wrap;rounded=0;dashed=1;fontSize=10;fontColor=#660033;" parent="1" vertex="1">
          <mxGeometry x="510" y="80" width="60" height="30" as="geometry" />
        </mxCell>
        <mxCell id="F3c4YPrWCq_vQF_exHxQ-62" style="edgeStyle=orthogonalEdgeStyle;rounded=0;orthogonalLoop=1;jettySize=auto;html=1;strokeColor=#A680B8;fontSize=10;fontColor=#660033;startArrow=none;startFill=0;endArrow=classic;endFill=1;entryX=0;entryY=0.5;entryDx=0;entryDy=0;" parent="1" edge="1" target="F3c4YPrWCq_vQF_exHxQ-22">
          <mxGeometry relative="1" as="geometry">
            <mxPoint x="450" y="450" as="sourcePoint" />
            <mxPoint x="370" y="440" as="targetPoint" />
            <Array as="points">
              <mxPoint x="420" y="450" />
              <mxPoint x="350" y="450" />
              <mxPoint x="350" y="320" />
            </Array>
          </mxGeometry>
        </mxCell>
        <mxCell id="F3c4YPrWCq_vQF_exHxQ-63" style="edgeStyle=orthogonalEdgeStyle;rounded=0;orthogonalLoop=1;jettySize=auto;html=1;strokeColor=#A680B8;fontSize=10;fontColor=#660033;startArrow=none;startFill=0;endArrow=classic;endFill=1;entryX=0;entryY=0.5;entryDx=0;entryDy=0;" parent="1" edge="1" target="F3c4YPrWCq_vQF_exHxQ-29">
          <mxGeometry relative="1" as="geometry">
            <mxPoint x="590" y="450" as="sourcePoint" />
            <mxPoint x="490" y="440" as="targetPoint" />
            <Array as="points">
              <mxPoint x="540" y="450" />
              <mxPoint x="470" y="450" />
              <mxPoint x="470" y="320" />
            </Array>
          </mxGeometry>
        </mxCell>
        <mxCell id="F3c4YPrWCq_vQF_exHxQ-64" value="&lt;div&gt;&lt;font color=&quot;#004C99&quot;&gt;OpenWRT&lt;/font&gt;&lt;/div&gt;&lt;div&gt;&lt;font color=&quot;#004C99&quot;&gt;Router&lt;/font&gt;&lt;/div&gt;" style="text;html=1;strokeColor=none;fillColor=none;align=center;verticalAlign=middle;whiteSpace=wrap;rounded=0;dashed=1;fontSize=10;fontColor=#660033;" parent="1" vertex="1">
          <mxGeometry x="240" y="230" width="60" height="30" as="geometry" />
        </mxCell>
      </root>
    </mxGraphModel>
  </diagram>
</mxfile>
